MIDTERM.vcd
$date
	Sat Dec  9 05:18:24 2023
$end

$version
	Synopsys VCS version R-2020.12-SP1-1_Full64
$end

$timescale
	1ps
$end

$comment Csum: 1 c2b24da07cd2cb03 $end


$scope module DMAC_TOP_TB $end

$scope module u_DUT $end
$var wire 1 ! clk $end
$var wire 1 " rst_n $end
$var wire 1 # psel_i $end
$var wire 1 $ penable_i $end
$var wire 12 % paddr_i [11:0] $end
$var wire 1 & pwrite_i $end
$var wire 32 ' pwdata_i [31:0] $end
$var reg 1 ( pready_o $end
$var reg 32 ) prdata_o [31:0] $end
$var reg 1 * pslverr_o $end
$var wire 4 + awid_o [3:0] $end
$var wire 32 , awaddr_o [31:0] $end
$var wire 4 - awlen_o [3:0] $end
$var wire 3 . awsize_o [2:0] $end
$var wire 2 / awburst_o [1:0] $end
$var wire 1 0 awvalid_o $end
$var wire 1 1 awready_i $end
$var wire 4 2 wid_o [3:0] $end
$var wire 32 3 wdata_o [31:0] $end
$var wire 4 4 wstrb_o [3:0] $end
$var wire 1 5 wlast_o $end
$var wire 1 6 wvalid_o $end
$var wire 1 7 wready_i $end
$var wire 4 8 bid_i [3:0] $end
$var wire 2 9 bresp_i [1:0] $end
$var wire 1 : bvalid_i $end
$var wire 1 ; bready_o $end
$var wire 4 < arid_o [3:0] $end
$var wire 32 = araddr_o [31:0] $end
$var wire 4 > arlen_o [3:0] $end
$var wire 3 ? arsize_o [2:0] $end
$var wire 2 @ arburst_o [1:0] $end
$var wire 1 A arvalid_o $end
$var wire 1 B arready_i $end
$var wire 4 C rid_i [3:0] $end
$var wire 32 D rdata_i [31:0] $end
$var wire 2 E rresp_i [1:0] $end
$var wire 1 F rlast_i $end
$var wire 1 G rvalid_i $end
$var wire 1 H rready_o $end

$scope module u_cfg $end
$var wire 1 ! clk $end
$var wire 1 " rst_n $end
$var wire 1 # psel_i $end
$var wire 1 $ penable_i $end
$var wire 12 % paddr_i [11:0] $end
$var wire 1 & pwrite_i $end
$var wire 32 ' pwdata_i [31:0] $end
$var reg 1 I pready_o $end
$var reg 32 J prdata_o [31:0] $end
$var reg 32 K ch0_src_addr_o [31:0] $end
$var reg 32 L ch0_dst_addr_o [31:0] $end
$var reg 16 M ch0_byte_len_o [15:0] $end
$var wire 1 N ch0_start_o $end
$var wire 1 O ch0_done_i $end
$var reg 32 P ch1_src_addr_o [31:0] $end
$var reg 32 Q ch1_dst_addr_o [31:0] $end
$var reg 16 R ch1_byte_len_o [15:0] $end
$var wire 1 S ch1_start_o $end
$var wire 1 T ch1_done_i $end
$var reg 32 U ch2_src_addr_o [31:0] $end
$var reg 32 V ch2_dst_addr_o [31:0] $end
$var reg 16 W ch2_byte_len_o [15:0] $end
$var wire 1 X ch2_start_o $end
$var wire 1 Y ch2_done_i $end
$var reg 32 Z ch3_src_addr_o [31:0] $end
$var reg 32 [ ch3_dst_addr_o [31:0] $end
$var reg 16 \ ch3_byte_len_o [15:0] $end
$var wire 1 ] ch3_start_o $end
$var wire 1 ^ ch3_done_i $end
$var reg 32 _ ch0_src_addr [31:0] $end
$var reg 32 ` ch0_dst_addr [31:0] $end
$var reg 16 a ch0_byte_len [15:0] $end
$var reg 32 b ch1_src_addr [31:0] $end
$var reg 32 c ch1_dst_addr [31:0] $end
$var reg 16 d ch1_byte_len [15:0] $end
$var reg 32 e ch2_src_addr [31:0] $end
$var reg 32 f ch2_dst_addr [31:0] $end
$var reg 16 g ch2_byte_len [15:0] $end
$var reg 32 h ch3_src_addr [31:0] $end
$var reg 32 i ch3_dst_addr [31:0] $end
$var reg 16 j ch3_byte_len [15:0] $end
$var wire 1 k wren $end
$var reg 32 l rdata [31:0] $end
$var wire 1 m ch0_start $end
$var wire 1 n ch1_start $end
$var wire 1 o ch2_start $end
$var wire 1 p ch3_start $end
$upscope $end


$scope module u_ar_arbiter $end
$var wire 1 ! clk $end
$var wire 1 " rst_n $end
$var reg 1 q dst_valid_o $end
$var wire 1 B dst_ready_i $end
$var reg 45 r dst_data_o [44:0] $end
$var reg 2 s engineCnt [1:0] $end
$var reg 2 t engineCnt_n [1:0] $end
$var reg 1 u src_ready_0 $end
$var reg 1 v src_ready_1 $end
$var reg 1 w src_ready_2 $end
$var reg 1 x src_ready_3 $end
$var reg 1 y dst_valid $end
$upscope $end


$scope module u_aw_arbiter $end
$var wire 1 ! clk $end
$var wire 1 " rst_n $end
$var reg 1 z dst_valid_o $end
$var wire 1 1 dst_ready_i $end
$var reg 45 { dst_data_o [44:0] $end
$var reg 2 | engineCnt [1:0] $end
$var reg 2 } engineCnt_n [1:0] $end
$var reg 1 ~ src_ready_0 $end
$var reg 1 "! src_ready_1 $end
$var reg 1 "" src_ready_2 $end
$var reg 1 "# src_ready_3 $end
$var reg 1 "$ dst_valid $end
$upscope $end


$scope module u_w_arbiter $end
$var wire 1 ! clk $end
$var wire 1 " rst_n $end
$var reg 1 "% dst_valid_o $end
$var wire 1 7 dst_ready_i $end
$var reg 41 "& dst_data_o [40:0] $end
$var reg 2 "' engineCnt [1:0] $end
$var reg 2 "( engineCnt_n [1:0] $end
$var reg 1 ") src_ready_0 $end
$var reg 1 "* src_ready_1 $end
$var reg 1 "+ src_ready_2 $end
$var reg 1 ", src_ready_3 $end
$var reg 1 "- dst_valid $end
$upscope $end


$scope module channel[0].u_engine $end
$var wire 1 ! clk $end
$var wire 1 " rst_n $end
$var wire 32 ". src_addr_i [31:0] $end
$var wire 32 "/ dst_addr_i [31:0] $end
$var wire 16 "0 byte_len_i [15:0] $end
$var wire 1 N start_i $end
$var wire 1 O done_o $end
$var wire 32 "1 awaddr_o [31:0] $end
$var wire 4 "2 awlen_o [3:0] $end
$var wire 3 "3 awsize_o [2:0] $end
$var wire 2 "4 awburst_o [1:0] $end
$var wire 1 "5 awvalid_o $end
$var wire 1 "6 awready_i $end
$var wire 32 "7 wdata_o [31:0] $end
$var wire 4 "8 wstrb_o [3:0] $end
$var wire 1 "9 wlast_o $end
$var wire 1 ": wvalid_o $end
$var wire 1 "; wready_i $end
$var wire 2 9 bresp_i [1:0] $end
$var wire 1 "< bvalid_i $end
$var wire 1 "= bready_o $end
$var wire 32 "> araddr_o [31:0] $end
$var wire 4 "? arlen_o [3:0] $end
$var wire 3 "@ arsize_o [2:0] $end
$var wire 2 "A arburst_o [1:0] $end
$var wire 1 "B arvalid_o $end
$var wire 1 "C arready_i $end
$var wire 32 D rdata_i [31:0] $end
$var wire 2 E rresp_i [1:0] $end
$var wire 1 F rlast_i $end
$var wire 1 "D rvalid_i $end
$var wire 1 "E rready_o $end
$var reg 3 "F state [2:0] $end
$var reg 3 "G state_n [2:0] $end
$var reg 32 "H src_addr [31:0] $end
$var reg 32 "I src_addr_n [31:0] $end
$var reg 32 "J dst_addr [31:0] $end
$var reg 32 "K dst_addr_n [31:0] $end
$var reg 16 "L cnt [15:0] $end
$var reg 16 "M cnt_n [15:0] $end
$var reg 4 "N wcnt [3:0] $end
$var reg 4 "O wcnt_n [3:0] $end
$var reg 4 "P wr_cnt [3:0] $end
$var reg 4 "Q wr_cnt_n [3:0] $end
$var reg 1 "R arvalid $end
$var reg 1 "S rready $end
$var reg 1 "T awvalid $end
$var reg 1 "U wvalid $end
$var reg 1 "V wlast $end
$var reg 1 "W done $end
$var wire 1 "X fifo_full $end
$var wire 1 "Y fifo_empty $end
$var reg 1 "Z fifo_wren $end
$var reg 1 "[ fifo_rden $end
$var wire 32 "\ fifo_rdata [31:0] $end

$scope module u_fifo $end
$var wire 1 ! clk $end
$var wire 1 " rst_n $end
$var wire 1 "X full_o $end
$var wire 1 "] wren_i $end
$var wire 32 D wdata_i [31:0] $end
$var wire 1 "Y empty_o $end
$var wire 1 "^ rden_i $end
$var wire 32 "\ rdata_o [31:0] $end
$var reg 1 "_ full $end
$var reg 1 "` full_n $end
$var reg 1 "a empty $end
$var reg 1 "b empty_n $end
$var reg 5 "c wrptr [4:0] $end
$var reg 5 "d wrptr_n [4:0] $end
$var reg 5 "e rdptr [4:0] $end
$var reg 5 "f rdptr_n [4:0] $end

$scope begin unnamed$$_0 $end
$upscope $end

$upscope $end

$upscope $end


$scope module channel[1].u_engine $end
$var wire 1 ! clk $end
$var wire 1 " rst_n $end
$var wire 32 "g src_addr_i [31:0] $end
$var wire 32 "h dst_addr_i [31:0] $end
$var wire 16 "i byte_len_i [15:0] $end
$var wire 1 S start_i $end
$var wire 1 T done_o $end
$var wire 32 "j awaddr_o [31:0] $end
$var wire 4 "k awlen_o [3:0] $end
$var wire 3 "l awsize_o [2:0] $end
$var wire 2 "m awburst_o [1:0] $end
$var wire 1 "n awvalid_o $end
$var wire 1 "o awready_i $end
$var wire 32 "p wdata_o [31:0] $end
$var wire 4 "q wstrb_o [3:0] $end
$var wire 1 "r wlast_o $end
$var wire 1 "s wvalid_o $end
$var wire 1 "t wready_i $end
$var wire 2 9 bresp_i [1:0] $end
$var wire 1 "u bvalid_i $end
$var wire 1 "v bready_o $end
$var wire 32 "w araddr_o [31:0] $end
$var wire 4 "x arlen_o [3:0] $end
$var wire 3 "y arsize_o [2:0] $end
$var wire 2 "z arburst_o [1:0] $end
$var wire 1 "{ arvalid_o $end
$var wire 1 "| arready_i $end
$var wire 32 D rdata_i [31:0] $end
$var wire 2 E rresp_i [1:0] $end
$var wire 1 F rlast_i $end
$var wire 1 "} rvalid_i $end
$var wire 1 "~ rready_o $end
$var reg 3 #! state [2:0] $end
$var reg 3 #" state_n [2:0] $end
$var reg 32 ## src_addr [31:0] $end
$var reg 32 #$ src_addr_n [31:0] $end
$var reg 32 #% dst_addr [31:0] $end
$var reg 32 #& dst_addr_n [31:0] $end
$var reg 16 #' cnt [15:0] $end
$var reg 16 #( cnt_n [15:0] $end
$var reg 4 #) wcnt [3:0] $end
$var reg 4 #* wcnt_n [3:0] $end
$var reg 4 #+ wr_cnt [3:0] $end
$var reg 4 #, wr_cnt_n [3:0] $end
$var reg 1 #- arvalid $end
$var reg 1 #. rready $end
$var reg 1 #/ awvalid $end
$var reg 1 #0 wvalid $end
$var reg 1 #1 wlast $end
$var reg 1 #2 done $end
$var wire 1 #3 fifo_full $end
$var wire 1 #4 fifo_empty $end
$var reg 1 #5 fifo_wren $end
$var reg 1 #6 fifo_rden $end
$var wire 32 #7 fifo_rdata [31:0] $end

$scope module u_fifo $end
$var wire 1 ! clk $end
$var wire 1 " rst_n $end
$var wire 1 #3 full_o $end
$var wire 1 #8 wren_i $end
$var wire 32 D wdata_i [31:0] $end
$var wire 1 #4 empty_o $end
$var wire 1 #9 rden_i $end
$var wire 32 #7 rdata_o [31:0] $end
$var reg 1 #: full $end
$var reg 1 #; full_n $end
$var reg 1 #< empty $end
$var reg 1 #= empty_n $end
$var reg 5 #> wrptr [4:0] $end
$var reg 5 #? wrptr_n [4:0] $end
$var reg 5 #@ rdptr [4:0] $end
$var reg 5 #A rdptr_n [4:0] $end

$scope begin unnamed$$_0 $end
$upscope $end

$upscope $end

$upscope $end


$scope module channel[2].u_engine $end
$var wire 1 ! clk $end
$var wire 1 " rst_n $end
$var wire 32 #B src_addr_i [31:0] $end
$var wire 32 #C dst_addr_i [31:0] $end
$var wire 16 #D byte_len_i [15:0] $end
$var wire 1 X start_i $end
$var wire 1 Y done_o $end
$var wire 32 #E awaddr_o [31:0] $end
$var wire 4 #F awlen_o [3:0] $end
$var wire 3 #G awsize_o [2:0] $end
$var wire 2 #H awburst_o [1:0] $end
$var wire 1 #I awvalid_o $end
$var wire 1 #J awready_i $end
$var wire 32 #K wdata_o [31:0] $end
$var wire 4 #L wstrb_o [3:0] $end
$var wire 1 #M wlast_o $end
$var wire 1 #N wvalid_o $end
$var wire 1 #O wready_i $end
$var wire 2 9 bresp_i [1:0] $end
$var wire 1 #P bvalid_i $end
$var wire 1 #Q bready_o $end
$var wire 32 #R araddr_o [31:0] $end
$var wire 4 #S arlen_o [3:0] $end
$var wire 3 #T arsize_o [2:0] $end
$var wire 2 #U arburst_o [1:0] $end
$var wire 1 #V arvalid_o $end
$var wire 1 #W arready_i $end
$var wire 32 D rdata_i [31:0] $end
$var wire 2 E rresp_i [1:0] $end
$var wire 1 F rlast_i $end
$var wire 1 #X rvalid_i $end
$var wire 1 #Y rready_o $end
$var reg 3 #Z state [2:0] $end
$var reg 3 #[ state_n [2:0] $end
$var reg 32 #\ src_addr [31:0] $end
$var reg 32 #] src_addr_n [31:0] $end
$var reg 32 #^ dst_addr [31:0] $end
$var reg 32 #_ dst_addr_n [31:0] $end
$var reg 16 #` cnt [15:0] $end
$var reg 16 #a cnt_n [15:0] $end
$var reg 4 #b wcnt [3:0] $end
$var reg 4 #c wcnt_n [3:0] $end
$var reg 4 #d wr_cnt [3:0] $end
$var reg 4 #e wr_cnt_n [3:0] $end
$var reg 1 #f arvalid $end
$var reg 1 #g rready $end
$var reg 1 #h awvalid $end
$var reg 1 #i wvalid $end
$var reg 1 #j wlast $end
$var reg 1 #k done $end
$var wire 1 #l fifo_full $end
$var wire 1 #m fifo_empty $end
$var reg 1 #n fifo_wren $end
$var reg 1 #o fifo_rden $end
$var wire 32 #p fifo_rdata [31:0] $end

$scope module u_fifo $end
$var wire 1 ! clk $end
$var wire 1 " rst_n $end
$var wire 1 #l full_o $end
$var wire 1 #q wren_i $end
$var wire 32 D wdata_i [31:0] $end
$var wire 1 #m empty_o $end
$var wire 1 #r rden_i $end
$var wire 32 #p rdata_o [31:0] $end
$var reg 1 #s full $end
$var reg 1 #t full_n $end
$var reg 1 #u empty $end
$var reg 1 #v empty_n $end
$var reg 5 #w wrptr [4:0] $end
$var reg 5 #x wrptr_n [4:0] $end
$var reg 5 #y rdptr [4:0] $end
$var reg 5 #z rdptr_n [4:0] $end

$scope begin unnamed$$_0 $end
$upscope $end

$upscope $end

$upscope $end


$scope module channel[3].u_engine $end
$var wire 1 ! clk $end
$var wire 1 " rst_n $end
$var wire 32 #{ src_addr_i [31:0] $end
$var wire 32 #| dst_addr_i [31:0] $end
$var wire 16 #} byte_len_i [15:0] $end
$var wire 1 ] start_i $end
$var wire 1 ^ done_o $end
$var wire 32 #~ awaddr_o [31:0] $end
$var wire 4 $! awlen_o [3:0] $end
$var wire 3 $" awsize_o [2:0] $end
$var wire 2 $# awburst_o [1:0] $end
$var wire 1 $$ awvalid_o $end
$var wire 1 $% awready_i $end
$var wire 32 $& wdata_o [31:0] $end
$var wire 4 $' wstrb_o [3:0] $end
$var wire 1 $( wlast_o $end
$var wire 1 $) wvalid_o $end
$var wire 1 $* wready_i $end
$var wire 2 9 bresp_i [1:0] $end
$var wire 1 $+ bvalid_i $end
$var wire 1 $, bready_o $end
$var wire 32 $- araddr_o [31:0] $end
$var wire 4 $. arlen_o [3:0] $end
$var wire 3 $/ arsize_o [2:0] $end
$var wire 2 $0 arburst_o [1:0] $end
$var wire 1 $1 arvalid_o $end
$var wire 1 $2 arready_i $end
$var wire 32 D rdata_i [31:0] $end
$var wire 2 E rresp_i [1:0] $end
$var wire 1 F rlast_i $end
$var wire 1 $3 rvalid_i $end
$var wire 1 $4 rready_o $end
$var reg 3 $5 state [2:0] $end
$var reg 3 $6 state_n [2:0] $end
$var reg 32 $7 src_addr [31:0] $end
$var reg 32 $8 src_addr_n [31:0] $end
$var reg 32 $9 dst_addr [31:0] $end
$var reg 32 $: dst_addr_n [31:0] $end
$var reg 16 $; cnt [15:0] $end
$var reg 16 $< cnt_n [15:0] $end
$var reg 4 $= wcnt [3:0] $end
$var reg 4 $> wcnt_n [3:0] $end
$var reg 4 $? wr_cnt [3:0] $end
$var reg 4 $@ wr_cnt_n [3:0] $end
$var reg 1 $A arvalid $end
$var reg 1 $B rready $end
$var reg 1 $C awvalid $end
$var reg 1 $D wvalid $end
$var reg 1 $E wlast $end
$var reg 1 $F done $end
$var wire 1 $G fifo_full $end
$var wire 1 $H fifo_empty $end
$var reg 1 $I fifo_wren $end
$var reg 1 $J fifo_rden $end
$var wire 32 $K fifo_rdata [31:0] $end

$scope module u_fifo $end
$var wire 1 ! clk $end
$var wire 1 " rst_n $end
$var wire 1 $G full_o $end
$var wire 1 $L wren_i $end
$var wire 32 D wdata_i [31:0] $end
$var wire 1 $H empty_o $end
$var wire 1 $M rden_i $end
$var wire 32 $K rdata_o [31:0] $end
$var reg 1 $N full $end
$var reg 1 $O full_n $end
$var reg 1 $P empty $end
$var reg 1 $Q empty_n $end
$var reg 5 $R wrptr [4:0] $end
$var reg 5 $S wrptr_n [4:0] $end
$var reg 5 $T rdptr [4:0] $end
$var reg 5 $U rdptr_n [4:0] $end

$scope begin unnamed$$_0 $end
$upscope $end

$upscope $end

$upscope $end

$upscope $end

$upscope $end

$enddefinitions $end

#0
$dumpvars
0m
0n
0o
0p
0k
bxxxxxxxxxxxxxxxx a
bxxxxxxxxxxxxxxxx M
bxxxxxxxxxxxxxxxxxxxxxxxxxxxxxxxx `
bxxxxxxxxxxxxxxxxxxxxxxxxxxxxxxxx L
bxxxxxxxxxxxxxxxxxxxxxxxxxxxxxxxx _
bxxxxxxxxxxxxxxxxxxxxxxxxxxxxxxxx K
bxxxxxxxxxxxxxxxx d
bxxxxxxxxxxxxxxxx R
bxxxxxxxxxxxxxxxxxxxxxxxxxxxxxxxx c
bxxxxxxxxxxxxxxxxxxxxxxxxxxxxxxxx Q
bxxxxxxxxxxxxxxxxxxxxxxxxxxxxxxxx b
bxxxxxxxxxxxxxxxxxxxxxxxxxxxxxxxx P
bxxxxxxxxxxxxxxxx g
bxxxxxxxxxxxxxxxx W
bxxxxxxxxxxxxxxxxxxxxxxxxxxxxxxxx f
bxxxxxxxxxxxxxxxxxxxxxxxxxxxxxxxx V
bxxxxxxxxxxxxxxxxxxxxxxxxxxxxxxxx e
bxxxxxxxxxxxxxxxxxxxxxxxxxxxxxxxx U
bxxxxxxxxxxxxxxxx j
bxxxxxxxxxxxxxxxx \
bxxxxxxxxxxxxxxxxxxxxxxxxxxxxxxxx i
bxxxxxxxxxxxxxxxxxxxxxxxxxxxxxxxx [
bxxxxxxxxxxxxxxxxxxxxxxxxxxxxxxxx h
bxxxxxxxxxxxxxxxxxxxxxxxxxxxxxxxx Z
bxxxxxxxxxxxxxxxxxxxxxxxxxxxxxxxx )
bxxxxxxxxxxxxxxxxxxxxxxxxxxxxxxxx l
bxxxxxxxxxxxxxxxxxxxxxxxxxxxxxxxx J
0y
0u
0v
0w
0x
bxxxxxxxxxxxxxxxxxxxxxxxxxxxxxxxxxxxxxxxxxxxxx r
bxx s
bxx t
0"$
0~
0"!
0""
0"#
bxxxxxxxxxxxxxxxxxxxxxxxxxxxxxxxxxxxxxxxxxxxxx {
bxx |
bxx }
0"-
0")
0"*
0"+
0",
bxxxxxxxxxxxxxxxxxxxxxxxxxxxxxxxxxxxxxxxxx "&
bxx "'
bxx "(
0"R
0"T
0"W
x"a
x"b
x"Y
x"X
0"[
0"Z
x"_
x"`
0"^
0"S
0"V
0"]
0"U
bxxxxxxxxxxxxxxxx "L
bxxxxxxxxxxxxxxxx "M
bxxxxxxxxxxxxxxxxxxxxxxxxxxxxxxxx "J
bxxxxxxxxxxxxxxxxxxxxxxxxxxxxxxxx "K
bxxxxxxxxxxxxxxxxxxxxxxxxxxxxxxxx "\
bxxxxx "e
bxxxxx "f
bxxxxxxxxxxxxxxxxxxxxxxxxxxxxxxxx "H
bxxxxxxxxxxxxxxxxxxxxxxxxxxxxxxxx "I
bxxx "F
bxxx "G
bxxxx "N
bxxxx "O
bxxxx "P
bxxxx "Q
bxxxxx "c
bxxxxx "d
0#-
0#/
0#2
x#<
x#=
x#4
x#3
0#6
0#5
x#:
x#;
0#9
0#.
0#1
0#8
0#0
bxxxxxxxxxxxxxxxx #'
bxxxxxxxxxxxxxxxx #(
bxxxxxxxxxxxxxxxxxxxxxxxxxxxxxxxx #%
bxxxxxxxxxxxxxxxxxxxxxxxxxxxxxxxx #&
bxxxxxxxxxxxxxxxxxxxxxxxxxxxxxxxx #7
bxxxxx #@
bxxxxx #A
bxxxxxxxxxxxxxxxxxxxxxxxxxxxxxxxx ##
bxxxxxxxxxxxxxxxxxxxxxxxxxxxxxxxx #$
bxxx #!
bxxx #"
bxxxx #)
bxxxx #*
bxxxx #+
bxxxx #,
bxxxxx #>
bxxxxx #?
0#f
0#h
0#k
x#u
x#v
x#m
x#l
0#o
0#n
x#s
x#t
0#r
0#g
0#j
0#q
0#i
bxxxxxxxxxxxxxxxx #`
bxxxxxxxxxxxxxxxx #a
bxxxxxxxxxxxxxxxxxxxxxxxxxxxxxxxx #^
bxxxxxxxxxxxxxxxxxxxxxxxxxxxxxxxx #_
bxxxxxxxxxxxxxxxxxxxxxxxxxxxxxxxx #p
bxxxxx #y
bxxxxx #z
bxxxxxxxxxxxxxxxxxxxxxxxxxxxxxxxx #\
bxxxxxxxxxxxxxxxxxxxxxxxxxxxxxxxx #]
bxxx #Z
bxxx #[
bxxxx #b
bxxxx #c
bxxxx #d
bxxxx #e
bxxxxx #w
bxxxxx #x
0$A
0$C
0$F
x$P
x$Q
x$H
x$G
0$J
0$I
x$N
x$O
0$M
0$B
0$E
0$L
0$D
bxxxxxxxxxxxxxxxx $;
bxxxxxxxxxxxxxxxx $<
bxxxxxxxxxxxxxxxxxxxxxxxxxxxxxxxx $9
bxxxxxxxxxxxxxxxxxxxxxxxxxxxxxxxx $:
bxxxxxxxxxxxxxxxxxxxxxxxxxxxxxxxx $K
bxxxxx $T
bxxxxx $U
bxxxxxxxxxxxxxxxxxxxxxxxxxxxxxxxx $7
bxxxxxxxxxxxxxxxxxxxxxxxxxxxxxxxx $8
bxxx $5
bxxx $6
bxxxx $=
bxxxx $>
bxxxx $?
bxxxx $@
bxxxxx $R
bxxxxx $S
bxxxx +
bxxxxxxxxxxxxxxxxxxxxxxxxxxxxxxxx ,
bxxxx -
bxxx .
bxx /
bxxxx 2
bxxxxxxxxxxxxxxxxxxxxxxxxxxxxxxxx 3
bxxxx 4
bxxxx <
bxxxxxxxxxxxxxxxxxxxxxxxxxxxxxxxx =
bxxxx >
bxxx ?
bxx @
x5
0!
1I
1(
0*
1;
0H
0A
00
06
0q
0z
0"%
0"
b000000000000 %
b00000000000000000000000000000000 '
bxxxx 8
b00 9
bxxxx C
bxxxxxxxxxxxxxxxxxxxxxxxxxxxxxxxx D
b00 E
0#
0$
0&
01
07
0:
0B
0F
0G
bxxxxxxxxxxxxxxxxxxxxxxxxxxxxxxxx ".
bxxxxxxxxxxxxxxxxxxxxxxxxxxxxxxxx "/
bxxxxxxxxxxxxxxxx "0
bxxxxxxxxxxxxxxxxxxxxxxxxxxxxxxxx "1
bxxxx "2
b010 "3
b01 "4
0"6
bxxxxxxxxxxxxxxxxxxxxxxxxxxxxxxxx "7
b1111 "8
0"9
0";
1"=
bxxxxxxxxxxxxxxxxxxxxxxxxxxxxxxxx ">
bxxxx "?
b010 "@
b01 "A
0"C
0"E
bxxxxxxxxxxxxxxxxxxxxxxxxxxxxxxxx "g
bxxxxxxxxxxxxxxxxxxxxxxxxxxxxxxxx "h
bxxxxxxxxxxxxxxxx "i
bxxxxxxxxxxxxxxxxxxxxxxxxxxxxxxxx "j
bxxxx "k
b010 "l
b01 "m
0"o
bxxxxxxxxxxxxxxxxxxxxxxxxxxxxxxxx "p
b1111 "q
0"r
0"t
1"v
bxxxxxxxxxxxxxxxxxxxxxxxxxxxxxxxx "w
bxxxx "x
b010 "y
b01 "z
0"|
0"~
bxxxxxxxxxxxxxxxxxxxxxxxxxxxxxxxx #B
bxxxxxxxxxxxxxxxxxxxxxxxxxxxxxxxx #C
bxxxxxxxxxxxxxxxx #D
bxxxxxxxxxxxxxxxxxxxxxxxxxxxxxxxx #E
bxxxx #F
b010 #G
b01 #H
0#J
bxxxxxxxxxxxxxxxxxxxxxxxxxxxxxxxx #K
b1111 #L
0#M
0#O
1#Q
bxxxxxxxxxxxxxxxxxxxxxxxxxxxxxxxx #R
bxxxx #S
b010 #T
b01 #U
0#W
0#Y
bxxxxxxxxxxxxxxxxxxxxxxxxxxxxxxxx #{
bxxxxxxxxxxxxxxxxxxxxxxxxxxxxxxxx #|
bxxxxxxxxxxxxxxxx #}
bxxxxxxxxxxxxxxxxxxxxxxxxxxxxxxxx #~
bxxxx $!
b010 $"
b01 $#
0$%
bxxxxxxxxxxxxxxxxxxxxxxxxxxxxxxxx $&
b1111 $'
0$(
0$*
1$,
bxxxxxxxxxxxxxxxxxxxxxxxxxxxxxxxx $-
bxxxx $.
b010 $/
b01 $0
0$2
0$4
0"<
0"D
0"u
0"}
0#P
0#X
0$+
0$3
0N
0S
0X
0]
0O
0T
0Y
0^
0"5
0":
0"B
0"n
0"s
0"{
0#I
0#N
0#V
0$$
0$)
0$1
$end
#10000
1!
b0000 8
b0000 C
b00000000000000000000000000000000 _
b00000000000000000000000000000000 K
b00000000000000000000000000000000 ".
b00000000000000000000000000000000 `
b00000000000000000000000000000000 L
b00000000000000000000000000000000 "/
b0000000000000000 a
b0000000000000000 M
b0000000000000000 "0
b00000000000000000000000000000000 b
b00000000000000000000000000000000 P
b00000000000000000000000000000000 "g
b00000000000000000000000000000000 c
b00000000000000000000000000000000 Q
b00000000000000000000000000000000 "h
b0000000000000000 d
b0000000000000000 R
b0000000000000000 "i
b00000000000000000000000000000000 e
b00000000000000000000000000000000 U
b00000000000000000000000000000000 #B
b00000000000000000000000000000000 f
b00000000000000000000000000000000 V
b00000000000000000000000000000000 #C
b0000000000000000 g
b0000000000000000 W
b0000000000000000 #D
b00000000000000000000000000000000 h
b00000000000000000000000000000000 Z
b00000000000000000000000000000000 #{
b00000000000000000000000000000000 i
b00000000000000000000000000000000 [
b00000000000000000000000000000000 #|
b0000000000000000 j
b0000000000000000 \
b0000000000000000 #}
b00000000000000000000000000000000 l
b00000000000000000000000000000000 J
b00000000000000000000000000000000 )
b00 s
b00 |
b00 "'
b000 "F
b00000000000000000000000000000000 "H
b00000000000000000000000000000000 ">
b00000000000000000000000000000000 "J
b00000000000000000000000000000000 "1
b0000000000000000 "L
b1111 "?
b1111 "2
b0000 "N
0"_
0"X
1"a
1"Y
b00000 "c
b00000 "e
b00000000000000000000000000000000 "\
b00000000000000000000000000000000 "7
b000 #!
b00000000000000000000000000000000 ##
b00000000000000000000000000000000 "w
b00000000000000000000000000000000 #%
b00000000000000000000000000000000 "j
b0000000000000000 #'
b1111 "x
b1111 "k
b0000 #)
0#:
0#3
1#<
1#4
b00000 #>
b00000 #@
b00000000000000000000000000000000 #7
b00000000000000000000000000000000 "p
b000 #Z
b00000000000000000000000000000000 #\
b00000000000000000000000000000000 #R
b00000000000000000000000000000000 #^
b00000000000000000000000000000000 #E
b0000000000000000 #`
b1111 #S
b1111 #F
b0000 #b
0#s
0#l
1#u
1#m
b00000 #w
b00000 #y
b00000000000000000000000000000000 #p
b00000000000000000000000000000000 #K
b000 $5
b00000000000000000000000000000000 $7
b00000000000000000000000000000000 $-
b00000000000000000000000000000000 $9
b00000000000000000000000000000000 #~
b0000000000000000 $;
b1111 $.
b1111 $!
b0000 $=
0$N
0$G
1$P
1$H
b00000 $R
b00000 $T
b00000000000000000000000000000000 $K
b00000000000000000000000000000000 $&
1"W
1O
b0000 "O
b0000000000000000 "M
b00000000000000000000000000000000 "K
b00000000000000000000000000000000 "I
b000 "G
1#2
1T
b0000 #*
b0000000000000000 #(
b00000000000000000000000000000000 #&
b00000000000000000000000000000000 #$
b000 #"
1#k
1Y
b0000 #c
b0000000000000000 #a
b00000000000000000000000000000000 #_
b00000000000000000000000000000000 #]
b000 #[
1$F
1^
b0000 $>
b0000000000000000 $<
b00000000000000000000000000000000 $:
b00000000000000000000000000000000 $8
b000 $6
b01 t
b01 }
b01 "(
0"`
1"b
b00000 "f
b00000 "d
0#;
1#=
b00000 #A
b00000 #?
0#t
1#v
b00000 #z
b00000 #x
0$O
1$Q
b00000 $U
b00000 $S
#20000
0!
#30000
1!
#40000
0!
#50000
1!
1"
#60000
0!
#70000
1!
b01 s
b01 |
b01 "'
b10 t
b10 }
b10 "(
#80000
0!
#90000
1!
b10 s
b10 |
b10 "'
b11 t
b11 }
b11 "(
#100000
0!
#110000
1!
b11 s
b11 |
b11 "'
b00 t
b00 }
b00 "(
#120000
0!
#130000
1!
b00 s
b00 |
b00 "'
b01 t
b01 }
b01 "(
#140000
0!
#150000
1!
b01 s
b01 |
b01 "'
b10 t
b10 }
b10 "(
#160000
0!
#170000
1!
b10 s
b10 |
b10 "'
b11 t
b11 }
b11 "(
#180000
0!
#190000
1!
b11 s
b11 |
b11 "'
b00 t
b00 }
b00 "(
#200000
0!
#210000
1!
b00 s
b00 |
b00 "'
b01 t
b01 }
b01 "(
#220000
0!
#230000
1!
b01 s
b01 |
b01 "'
b10 t
b10 }
b10 "(
#240000
0!
#250000
1!
b10 s
b10 |
b10 "'
b11 t
b11 }
b11 "(
#251000
1#
bxxxxxxxxxxxxxxxxxxxxxxxxxxxxxxxx '
#260000
0!
#270000
1!
b00000000000000100000000100000001 l
b00000000000000100000000100000001 J
b00000000000000100000000100000001 )
b11 s
b11 |
b11 "'
b00 t
b00 }
b00 "(
#271000
1$
#280000
0!
#290000
1!
0#
0$
bxxxxxxxxxxxx %
x&
b00 s
b00 |
b00 "'
b01 t
b01 }
b01 "(
#291000
1#
b000100000000 %
1&
b00000000000000000000000000000000 '
#300000
0!
#310000
1!
b01 s
b01 |
b01 "'
b10 t
b10 }
b10 "(
#311000
1$
1k
#320000
0!
#330000
1!
0#
0$
bxxxxxxxxxxxx %
x&
bxxxxxxxxxxxxxxxxxxxxxxxxxxxxxxxx '
0k
0p
0o
0n
0m
b10 s
b10 |
b10 "'
b11 t
b11 }
b11 "(
#331000
1#
b001000000000 %
1&
b00000000000000000000000000000000 '
#340000
0!
